packages/SyntheSys/SyntheSys-0.1.2.tar.gz/SyntheSys-0.1.2/SyntheSys/Library/HDL/Management/Emulation/ControlVerif/Loopback/src/LOOPBACK.vcd
$date
   Mon Jul 13 18:05:04 2015
$end
$version
  O.40d
$end
$timescale
  1ps
$end
$scope module controlverif_loopback_96_96_0_tb $end
$scope module ControlVerif_Loopback_96_96_0_DUT $end
$var wire 1 ! reset $end
$var wire 1 " clock $end
$var wire 1 #! inputs [94] $end
$var wire 1 "! inputs [93] $end
$var wire 1 !! inputs [92] $end
$var wire 1 ~ inputs [91] $end
$var wire 1 } inputs [90] $end
$var wire 1 | inputs [89] $end
$var wire 1 { inputs [88] $end
$var wire 1 z inputs [87] $end
$var wire 1 y inputs [86] $end
$var wire 1 x inputs [85] $end
$var wire 1 w inputs [84] $end
$var wire 1 v inputs [83] $end
$var wire 1 u inputs [82] $end
$var wire 1 t inputs [81] $end
$var wire 1 s inputs [80] $end
$var wire 1 r inputs [79] $end
$var wire 1 q inputs [78] $end
$var wire 1 p inputs [77] $end
$var wire 1 o inputs [76] $end
$var wire 1 n inputs [75] $end
$var wire 1 m inputs [74] $end
$var wire 1 l inputs [73] $end
$var wire 1 k inputs [72] $end
$var wire 1 j inputs [71] $end
$var wire 1 i inputs [70] $end
$var wire 1 h inputs [69] $end
$var wire 1 g inputs [68] $end
$var wire 1 f inputs [67] $end
$var wire 1 e inputs [66] $end
$var wire 1 d inputs [65] $end
$var wire 1 c inputs [64] $end
$var wire 1 b inputs [63] $end
$var wire 1 a inputs [62] $end
$var wire 1 ` inputs [61] $end
$var wire 1 _ inputs [60] $end
$var wire 1 ^ inputs [59] $end
$var wire 1 ] inputs [58] $end
$var wire 1 \ inputs [57] $end
$var wire 1 [ inputs [56] $end
$var wire 1 Z inputs [55] $end
$var wire 1 Y inputs [54] $end
$var wire 1 X inputs [53] $end
$var wire 1 W inputs [52] $end
$var wire 1 V inputs [51] $end
$var wire 1 U inputs [50] $end
$var wire 1 T inputs [49] $end
$var wire 1 S inputs [48] $end
$var wire 1 R inputs [47] $end
$var wire 1 Q inputs [46] $end
$var wire 1 P inputs [45] $end
$var wire 1 O inputs [44] $end
$var wire 1 N inputs [43] $end
$var wire 1 M inputs [42] $end
$var wire 1 L inputs [41] $end
$var wire 1 K inputs [40] $end
$var wire 1 J inputs [39] $end
$var wire 1 I inputs [38] $end
$var wire 1 H inputs [37] $end
$var wire 1 G inputs [36] $end
$var wire 1 F inputs [35] $end
$var wire 1 E inputs [34] $end
$var wire 1 D inputs [33] $end
$var wire 1 C inputs [32] $end
$var wire 1 B inputs [31] $end
$var wire 1 A inputs [30] $end
$var wire 1 @ inputs [29] $end
$var wire 1 ? inputs [28] $end
$var wire 1 > inputs [27] $end
$var wire 1 = inputs [26] $end
$var wire 1 < inputs [25] $end
$var wire 1 ; inputs [24] $end
$var wire 1 : inputs [23] $end
$var wire 1 9 inputs [22] $end
$var wire 1 8 inputs [21] $end
$var wire 1 7 inputs [20] $end
$var wire 1 6 inputs [19] $end
$var wire 1 5 inputs [18] $end
$var wire 1 4 inputs [17] $end
$var wire 1 3 inputs [16] $end
$var wire 1 2 inputs [15] $end
$var wire 1 1 inputs [14] $end
$var wire 1 0 inputs [13] $end
$var wire 1 / inputs [12] $end
$var wire 1 . inputs [11] $end
$var wire 1 - inputs [10] $end
$var wire 1 , inputs [9] $end
$var wire 1 + inputs [8] $end
$var wire 1 * inputs [7] $end
$var wire 1 ) inputs [6] $end
$var wire 1 ( inputs [5] $end
$var wire 1 ' inputs [4] $end
$var wire 1 & inputs [3] $end
$var wire 1 % inputs [2] $end
$var wire 1 $ inputs [1] $end
$var wire 1 # inputs [0] $end
$var wire 1 %" outputs [95] $end
$var wire 1 $" outputs [94] $end
$var wire 1 #" outputs [93] $end
$var wire 1 "" outputs [92] $end
$var wire 1 !" outputs [91] $end
$var wire 1 ~! outputs [90] $end
$var wire 1 }! outputs [89] $end
$var wire 1 |! outputs [88] $end
$var wire 1 {! outputs [87] $end
$var wire 1 z! outputs [86] $end
$var wire 1 y! outputs [85] $end
$var wire 1 x! outputs [84] $end
$var wire 1 w! outputs [83] $end
$var wire 1 v! outputs [82] $end
$var wire 1 u! outputs [81] $end
$var wire 1 t! outputs [80] $end
$var wire 1 s! outputs [79] $end
$var wire 1 r! outputs [78] $end
$var wire 1 q! outputs [77] $end
$var wire 1 p! outputs [76] $end
$var wire 1 o! outputs [75] $end
$var wire 1 n! outputs [74] $end
$var wire 1 m! outputs [73] $end
$var wire 1 l! outputs [72] $end
$var wire 1 k! outputs [71] $end
$var wire 1 j! outputs [70] $end
$var wire 1 i! outputs [69] $end
$var wire 1 h! outputs [68] $end
$var wire 1 g! outputs [67] $end
$var wire 1 f! outputs [66] $end
$var wire 1 e! outputs [65] $end
$var wire 1 d! outputs [64] $end
$var wire 1 c! outputs [63] $end
$var wire 1 b! outputs [62] $end
$var wire 1 a! outputs [61] $end
$var wire 1 `! outputs [60] $end
$var wire 1 _! outputs [59] $end
$var wire 1 ^! outputs [58] $end
$var wire 1 ]! outputs [57] $end
$var wire 1 \! outputs [56] $end
$var wire 1 [! outputs [55] $end
$var wire 1 Z! outputs [54] $end
$var wire 1 Y! outputs [53] $end
$var wire 1 X! outputs [52] $end
$var wire 1 W! outputs [51] $end
$var wire 1 V! outputs [50] $end
$var wire 1 U! outputs [49] $end
$var wire 1 T! outputs [48] $end
$var wire 1 S! outputs [47] $end
$var wire 1 R! outputs [46] $end
$var wire 1 Q! outputs [45] $end
$var wire 1 P! outputs [44] $end
$var wire 1 O! outputs [43] $end
$var wire 1 N! outputs [42] $end
$var wire 1 M! outputs [41] $end
$var wire 1 L! outputs [40] $end
$var wire 1 K! outputs [39] $end
$var wire 1 J! outputs [38] $end
$var wire 1 I! outputs [37] $end
$var wire 1 H! outputs [36] $end
$var wire 1 G! outputs [35] $end
$var wire 1 F! outputs [34] $end
$var wire 1 E! outputs [33] $end
$var wire 1 D! outputs [32] $end
$var wire 1 C! outputs [31] $end
$var wire 1 B! outputs [30] $end
$var wire 1 A! outputs [29] $end
$var wire 1 @! outputs [28] $end
$var wire 1 ?! outputs [27] $end
$var wire 1 >! outputs [26] $end
$var wire 1 =! outputs [25] $end
$var wire 1 <! outputs [24] $end
$var wire 1 ;! outputs [23] $end
$var wire 1 :! outputs [22] $end
$var wire 1 9! outputs [21] $end
$var wire 1 8! outputs [20] $end
$var wire 1 7! outputs [19] $end
$var wire 1 6! outputs [18] $end
$var wire 1 5! outputs [17] $end
$var wire 1 4! outputs [16] $end
$var wire 1 3! outputs [15] $end
$var wire 1 2! outputs [14] $end
$var wire 1 1! outputs [13] $end
$var wire 1 0! outputs [12] $end
$var wire 1 /! outputs [11] $end
$var wire 1 .! outputs [10] $end
$var wire 1 -! outputs [9] $end
$var wire 1 ,! outputs [8] $end
$var wire 1 +! outputs [7] $end
$var wire 1 *! outputs [6] $end
$var wire 1 )! outputs [5] $end
$var wire 1 (! outputs [4] $end
$var wire 1 '! outputs [3] $end
$var wire 1 &! outputs [2] $end
$var wire 1 %! outputs [1] $end
$var wire 1 $! outputs [0] $end
$upscope $end
$upscope $end
$enddefinitions $end
#0
$dumpvars
1!
0"
0#!
0"!
0!!
0~
0}
0|
0{
0z
0y
0x
0w
0v
0u
0t
0s
0r
0q
0p
0o
0n
0m
0l
0k
0j
0i
0h
0g
0f
0e
0d
0c
0b
0a
0`
0_
0^
0]
0\
0[
0Z
0Y
0X
0W
0V
0U
0T
0S
0R
0Q
0P
0O
0N
0M
0L
0K
0J
0I
0H
0G
0F
0E
0D
0C
0B
0A
0@
0?
0>
0=
0<
0;
0:
09
08
07
06
05
04
03
02
01
00
0/
0.
0-
0,
0+
0*
0)
0(
0'
0&
0%
0$
0#
0%"
0$"
0#"
0""
0!"
0~!
0}!
0|!
0{!
0z!
0y!
0x!
0w!
0v!
0u!
0t!
0s!
0r!
0q!
0p!
0o!
0n!
0m!
0l!
0k!
0j!
0i!
0h!
0g!
0f!
0e!
0d!
0c!
0b!
0a!
0`!
0_!
0^!
0]!
0\!
0[!
0Z!
0Y!
0X!
0W!
0V!
0U!
0T!
0S!
0R!
0Q!
0P!
0O!
0N!
0M!
0L!
0K!
0J!
0I!
0H!
0G!
0F!
0E!
0D!
0C!
0B!
0A!
0@!
0?!
0>!
0=!
0<!
0;!
0:!
09!
08!
07!
06!
05!
04!
03!
02!
01!
00!
0/!
0.!
0-!
0,!
0+!
0*!
0)!
0(!
0'!
0&!
0%!
0$!
$end
#10000
1"
#20000
0"
#23000
0!
#30000
1"
1#
#40000
0"
#50000
1"
1$
0#
1$!
#60000
0"
#70000
1"
1#
1%!
0$!
#80000
0"
#90000
1"
1%
0$
0#
1$!
#100000
0"
#110000
1"
1#
1&!
0%!
0$!
#120000
0"
#130000
1"
1$
0#
1$!
#140000
0"
#150000
1"
1#
1%!
0$!
#160000
0"
#170000
1"
1&
0%
0$
0#
1$!
#180000
0"
#190000
1"
1#
1'!
0&!
0%!
0$!
#200000
0"
#210000
1"
1$
0#
1$!
#220000
0"
#230000
1"
1#
1%!
0$!
#240000
0"
#250000
1"
1%
0$
0#
1$!
#260000
0"
#270000
1"
1#
1&!
0%!
0$!
#280000
0"
#290000
1"
1$
0#
1$!
#300000
0"
#310000
1"
1#
1%!
0$!
#320000
0"
#330000
1"
1'
0&
0%
0$
0#
1$!
#340000
0"
#350000
1"
1#
1(!
0'!
0&!
0%!
0$!
#360000
0"
#370000
1"
1$
0#
1$!
#380000
0"
#390000
1"
1#
1%!
0$!
#400000
0"
#410000
1"
1%
0$
0#
1$!
#420000
0"
#430000
1"
1#
1&!
0%!
0$!
#440000
0"
#450000
1"
1$
0#
1$!
#460000
0"
#470000
1"
1#
1%!
0$!
#480000
0"
#490000
1"
1&
0%
0$
0#
1$!
#500000
0"
#510000
1"
1#
1'!
0&!
0%!
0$!
#520000
0"
#530000
1"
1$
0#
1$!
#540000
0"
#550000
1"
1#
1%!
0$!
#560000
0"
#570000
1"
1%
0$
0#
1$!
#580000
0"
#590000
1"
1#
1&!
0%!
0$!
#600000
0"
#610000
1"
1$
0#
1$!
#620000
0"
#630000
1"
1#
1%!
0$!
#640000
0"
#650000
1"
1(
0'
0&
0%
0$
0#
1$!
#660000
0"
#670000
1"
1#
1)!
0(!
0'!
0&!
0%!
0$!
#680000
0"
#690000
1"
1$
0#
1$!
#700000
0"
#710000
1"
1#
1%!
0$!
#720000
0"
#730000
1"
1%
0$
0#
1$!
#740000
0"
#750000
1"
1#
1&!
0%!
0$!
#760000
0"
#770000
1"
1$
0#
1$!
#780000
0"
#790000
1"
1#
1%!
0$!
#800000
0"
#810000
1"
1&
0%
0$
0#
1$!
#820000
0"
#830000
1"
1#
1'!
0&!
0%!
0$!
#840000
0"
#850000
1"
1$
0#
1$!
#860000
0"
#870000
1"
1#
1%!
0$!
#880000
0"
#890000
1"
1%
0$
0#
1$!
#900000
0"
#910000
1"
1#
1&!
0%!
0$!
#920000
0"
#930000
1"
1$
0#
1$!
#940000
0"
#950000
1"
1#
1%!
0$!
#960000
0"
#970000
1"
1'
0&
0%
0$
0#
1$!
#980000
0"
#990000
1"
1#
1(!
0'!
0&!
0%!
0$!
#1000000
0"
#1010000
1"
1$
0#
1$!
#1020000
0"
#1030000
1"
1#
1%!
0$!
#1040000
0"
#1050000
1"
1%
0$
0#
1$!
#1060000
0"
#1070000
1"
1#
1&!
0%!
0$!
#1080000
0"
#1090000
1"
1$
0#
1$!
#1100000
0"
#1110000
1"
1#
1%!
0$!
#1120000
0"
#1130000
1"
1&
0%
0$
0#
1$!
#1140000
0"
#1150000
1"
1#
1'!
0&!
0%!
0$!
#1160000
0"
#1170000
1"
1$
0#
1$!
#1180000
0"
#1190000
1"
1#
1%!
0$!
#1200000
0"
#1210000
1"
1%
0$
0#
1$!
#1220000
0"
#1230000
1"
1#
1&!
0%!
0$!
#1240000
0"
#1250000
1"
1$
0#
1$!
#1260000
0"
#1270000
1"
1#
1%!
0$!
#1280000
0"
#1290000
1"
1)
0(
0'
0&
0%
0$
0#
1$!
#1300000
0"
#1310000
1"
1#
1*!
0)!
0(!
0'!
0&!
0%!
0$!
#1320000
0"
#1330000
1"
1$
0#
1$!
#1340000
0"
#1350000
1"
1#
1%!
0$!
#1360000
0"
#1370000
1"
1%
0$
0#
1$!
#1380000
0"
#1390000
1"
1#
1&!
0%!
0$!
#1400000
0"
#1410000
1"
1$
0#
1$!
#1420000
0"
#1430000
1"
1#
1%!
0$!
#1440000
0"
#1450000
1"
1&
0%
0$
0#
1$!
#1460000
0"
#1470000
1"
1#
1'!
0&!
0%!
0$!
#1480000
0"
#1490000
1"
1$
0#
1$!
#1500000
0"
#1510000
1"
1#
1%!
0$!
#1520000
0"
#1530000
1"
1%
0$
0#
1$!
#1540000
0"
#1550000
1"
1#
1&!
0%!
0$!
#1560000
0"
#1570000
1"
1$
0#
1$!
#1580000
0"
#1590000
1"
1#
1%!
0$!
#1600000
0"
#1610000
1"
1'
0&
0%
0$
0#
1$!
#1620000
0"
#1630000
1"
1#
1(!
0'!
0&!
0%!
0$!
#1640000
0"
#1650000
1"
1$
0#
1$!
#1660000
0"
#1670000
1"
1#
1%!
0$!
#1680000
0"
#1690000
1"
1%
0$
0#
1$!
#1700000
0"
#1710000
1"
1#
1&!
0%!
0$!
#1720000
0"
#1730000
1"
1$
0#
1$!
#1740000
0"
#1750000
1"
1#
1%!
0$!
#1760000
0"
#1770000
1"
1&
0%
0$
0#
1$!
#1780000
0"
#1790000
1"
1#
1'!
0&!
0%!
0$!
#1800000
0"
#1810000
1"
1$
0#
1$!
#1820000
0"
#1830000
1"
1#
1%!
0$!
#1840000
0"
#1850000
1"
1%
0$
0#
1$!
#1860000
0"
#1870000
1"
1#
1&!
0%!
0$!
#1880000
0"
#1890000
1"
1$
0#
1$!
#1900000
0"
#1910000
1"
1#
1%!
0$!
#1920000
0"
#1930000
1"
1(
0'
0&
0%
0$
0#
1$!
#1940000
0"
#1950000
1"
1#
1)!
0(!
0'!
0&!
0%!
0$!
#1960000
0"
#1970000
1"
1$
0#
1$!
#1980000
0"
#1990000
1"
1#
1%!
0$!
#2000000
0"
#2010000
1"
1%
0$
0#
1$!
#2020000
0"
#2030000
1"
1#
1&!
0%!
0$!
#2040000
0"
#2050000
1"
1$
0#
1$!
#2060000
0"
#2070000
1"
1#
1%!
0$!
#2080000
0"
#2090000
1"
1&
0%
0$
0#
1$!
#2100000
0"
#2110000
1"
1#
1'!
0&!
0%!
0$!
#2120000
0"
#2130000
1"
1$
0#
1$!
#2140000
0"
#2150000
1"
1#
1%!
0$!
#2160000
0"
#2170000
1"
1%
0$
0#
1$!
#2180000
0"
#2190000
1"
1#
1&!
0%!
0$!
#2200000
0"
#2210000
1"
1$
0#
1$!
#2220000
0"
#2230000
1"
1#
1%!
0$!
#2240000
0"
#2250000
1"
1'
0&
0%
0$
0#
1$!
#2260000
0"
#2270000
1"
1#
1(!
0'!
0&!
0%!
0$!
#2280000
0"
#2290000
1"
1$
0#
1$!
#2300000
0"
#2310000
1"
1#
1%!
0$!
#2320000
0"
#2330000
1"
1%
0$
0#
1$!
#2340000
0"
#2350000
1"
1#
1&!
0%!
0$!
#2360000
0"
#2370000
1"
1$
0#
1$!
#2380000
0"
#2390000
1"
1#
1%!
0$!
#2400000
0"
#2410000
1"
1&
0%
0$
0#
1$!
#2420000
0"
#2430000
1"
1#
1'!
0&!
0%!
0$!
#2440000
0"
#2450000
1"
1$
0#
1$!
#2460000
0"
#2470000
1"
1#
1%!
0$!
#2480000
0"
#2490000
1"
1%
0$
0#
1$!
#2500000
0"
#2510000
1"
1#
1&!
0%!
0$!
#2520000
0"
#2530000
1"
1$
0#
1$!
#2540000
0"
#2550000
1"
1#
1%!
0$!
#2560000
0"
#2570000
1"
1*
0)
0(
0'
0&
0%
0$
0#
1$!
#2580000
0"
#2590000
1"
1#
1+!
0*!
0)!
0(!
0'!
0&!
0%!
0$!
#2600000
0"
#2610000
1"
1$
0#
1$!
#2620000
0"
#2630000
1"
1#
1%!
0$!
#2640000
0"
#2650000
1"
1%
0$
0#
1$!
#2660000
0"
#2670000
1"
1#
1&!
0%!
0$!
#2680000
0"
#2690000
1"
1$
0#
1$!
#2700000
0"
#2710000
1"
1#
1%!
0$!
#2720000
0"
#2730000
1"
1&
0%
0$
0#
1$!
#2740000
0"
#2750000
1"
1#
1'!
0&!
0%!
0$!
#2760000
0"
#2770000
1"
1$
0#
1$!
#2780000
0"
#2790000
1"
1#
1%!
0$!
#2800000
0"
#2810000
1"
1%
0$
0#
1$!
#2820000
0"
#2830000
1"
1#
1&!
0%!
0$!
#2840000
0"
#2850000
1"
1$
0#
1$!
#2860000
0"
#2870000
1"
1#
1%!
0$!
#2880000
0"
#2890000
1"
1'
0&
0%
0$
0#
1$!
#2900000
0"
#2910000
1"
1#
1(!
0'!
0&!
0%!
0$!
#2920000
0"
#2930000
1"
1$
0#
1$!
#2940000
0"
#2950000
1"
1#
1%!
0$!
#2960000
0"
#2970000
1"
1%
0$
0#
1$!
#2980000
0"
#2990000
1"
1#
1&!
0%!
0$!
#3000000
0"
#3010000
1"
1$
0#
1$!
#3020000
0"
#3030000
1"
1#
1%!
0$!
#3040000
0"
#3050000
1"
1&
0%
0$
0#
1$!
#3060000
0"
#3070000
1"
1#
1'!
0&!
0%!
0$!
#3080000
0"
#3090000
1"
1$
0#
1$!
#3100000
0"
#3110000
1"
1#
1%!
0$!
#3120000
0"
#3130000
1"
1%
0$
0#
1$!
#3140000
0"
#3150000
1"
1#
1&!
0%!
0$!
#3160000
0"
#3170000
1"
1$
0#
1$!
#3180000
0"
#3190000
1"
1#
1%!
0$!
#3200000
0"
#3210000
1"
1(
0'
0&
0%
0$
0#
1$!
#3220000
0"
#3230000
1"
1#
1)!
0(!
0'!
0&!
0%!
0$!
#3240000
0"
#3250000
1"
1$
0#
1$!
#3260000
0"
#3270000
1"
1#
1%!
0$!
#3280000
0"
#3290000
1"
1%
0$
0#
1$!
#3300000
0"
#3310000
1"
1#
1&!
0%!
0$!
#3320000
0"
#3330000
1"
1$
0#
1$!
#3340000
0"
#3350000
1"
1#
1%!
0$!
#3360000
0"
#3370000
1"
1&
0%
0$
0#
1$!
#3380000
0"
#3390000
1"
1#
1'!
0&!
0%!
0$!
#3400000
0"
#3410000
1"
1$
0#
1$!
#3420000
0"
#3430000
1"
1#
1%!
0$!
#3440000
0"
#3450000
1"
1%
0$
0#
1$!
#3460000
0"
#3470000
1"
1#
1&!
0%!
0$!
#3480000
0"
#3490000
1"
1$
0#
1$!
#3500000
0"
#3510000
1"
1#
1%!
0$!
#3520000
0"
#3530000
1"
1'
0&
0%
0$
0#
1$!
#3540000
0"
#3550000
1"
1#
1(!
0'!
0&!
0%!
0$!
#3560000
0"
#3570000
1"
1$
0#
1$!
#3580000
0"
#3590000
1"
1#
1%!
0$!
#3600000
0"
#3610000
1"
1%
0$
0#
1$!
#3620000
0"
#3630000
1"
1#
1&!
0%!
0$!
#3640000
0"
#3650000
1"
1$
0#
1$!
#3660000
0"
#3670000
1"
1#
1%!
0$!
#3680000
0"
#3690000
1"
1&
0%
0$
0#
1$!
#3700000
0"
#3710000
1"
1#
1'!
0&!
0%!
0$!
#3720000
0"
#3730000
1"
1$
0#
1$!
#3740000
0"
#3750000
1"
1#
1%!
0$!
#3760000
0"
#3770000
1"
1%
0$
0#
1$!
#3780000
0"
#3790000
1"
1#
1&!
0%!
0$!
#3800000
0"
#3810000
1"
1$
0#
1$!
#3820000
0"
#3830000
1"
1#
1%!
0$!
#3840000
0"
#3850000
1"
1)
0(
0'
0&
0%
0$
0#
1$!
#3860000
0"
#3870000
1"
1#
1*!
0)!
0(!
0'!
0&!
0%!
0$!
#3880000
0"
#3890000
1"
1$
0#
1$!
#3900000
0"
#3910000
1"
1#
1%!
0$!
#3920000
0"
#3930000
1"
1%
0$
0#
1$!
#3940000
0"
#3950000
1"
1#
1&!
0%!
0$!
#3960000
0"
#3970000
1"
1$
0#
1$!
#3980000
0"
#3990000
1"
1#
1%!
0$!
#4000000
0"
#4010000
1"
1&
0%
0$
0#
1$!
#4020000
0"
#4030000
1"
1#
1'!
0&!
0%!
0$!
#4040000
0"
#4050000
1"
1$
0#
1$!
#4060000
0"
#4070000
1"
1#
1%!
0$!
#4080000
0"
#4090000
1"
1%
0$
0#
1$!
#4100000
0"
#4110000
1"
1#
1&!
0%!
0$!
#4120000
0"
#4130000
1"
1$
0#
1$!
#4140000
0"
#4150000
1"
1#
1%!
0$!
#4160000
0"
#4170000
1"
1'
0&
0%
0$
0#
1$!
#4180000
0"
#4190000
1"
1#
1(!
0'!
0&!
0%!
0$!
#4200000
0"
#4210000
1"
1$
0#
1$!
#4220000
0"
#4230000
1"
1#
1%!
0$!
#4240000
0"
#4250000
1"
1%
0$
0#
1$!
#4260000
0"
#4270000
1"
1#
1&!
0%!
0$!
#4280000
0"
#4290000
1"
1$
0#
1$!
#4300000
0"
#4310000
1"
1#
1%!
0$!
#4320000
0"
#4330000
1"
1&
0%
0$
0#
1$!
#4340000
0"
#4350000
1"
1#
1'!
0&!
0%!
0$!
#4360000
0"
#4370000
1"
1$
0#
1$!
#4380000
0"
#4390000
1"
1#
1%!
0$!
#4400000
0"
#4410000
1"
1%
0$
0#
1$!
#4420000
0"
#4430000
1"
1#
1&!
0%!
0$!
#4440000
0"
#4450000
1"
1$
0#
1$!
#4460000
0"
#4470000
1"
1#
1%!
0$!
#4480000
0"
#4490000
1"
1(
0'
0&
0%
0$
0#
1$!
#4500000
0"
#4510000
1"
1#
1)!
0(!
0'!
0&!
0%!
0$!
#4520000
0"
#4530000
1"
1$
0#
1$!
#4540000
0"
#4550000
1"
1#
1%!
0$!
#4560000
0"
#4570000
1"
1%
0$
0#
1$!
#4580000
0"
#4590000
1"
1#
1&!
0%!
0$!
#4600000
0"
#4610000
1"
1$
0#
1$!
#4620000
0"
#4630000
1"
1#
1%!
0$!
#4640000
0"
#4650000
1"
1&
0%
0$
0#
1$!
#4660000
0"
#4670000
1"
1#
1'!
0&!
0%!
0$!
#4680000
0"
#4690000
1"
1$
0#
1$!
#4700000
0"
#4710000
1"
1#
1%!
0$!
#4720000
0"
#4730000
1"
1%
0$
0#
1$!
#4740000
0"
#4750000
1"
1#
1&!
0%!
0$!
#4760000
0"
#4770000
1"
1$
0#
1$!
#4780000
0"
#4790000
1"
1#
1%!
0$!
#4800000
0"
#4810000
1"
1'
0&
0%
0$
0#
1$!
#4820000
0"
#4830000
1"
1#
1(!
0'!
0&!
0%!
0$!
#4840000
0"
#4850000
1"
1$
0#
1$!
#4860000
0"
#4870000
1"
1#
1%!
0$!
#4880000
0"
#4890000
1"
1%
0$
0#
1$!
#4900000
0"
#4910000
1"
1#
1&!
0%!
0$!
#4920000
0"
#4930000
1"
1$
0#
1$!
#4940000
0"
#4950000
1"
1#
1%!
0$!
#4960000
0"
#4970000
1"
1&
0%
0$
0#
1$!
#4980000
0"
#4990000
1"
1#
1'!
0&!
0%!
0$!
#5000000
0"
#5010000
1"
1$
0#
1$!
#5020000
0"
#5030000
1"
1#
1%!
0$!
#5040000
0"
#5050000
1"
1%
0$
0#
1$!
#5060000
0"
#5070000
1"
1#
1&!
0%!
0$!
#5080000
0"
#5090000
1"
1$
0#
1$!
#5100000
0"
#5110000
1"
1#
1%!
0$!
#5120000
0"
#5130000
1"
1+
0*
0)
0(
0'
0&
0%
0$
0#
1$!
#5140000
0"
#5150000
1"
1#
1,!
0+!
0*!
0)!
0(!
0'!
0&!
0%!
0$!
#5160000
0"
#5170000
1"
1$
0#
1$!
#5180000
0"
#5190000
1"
1#
1%!
0$!
#5200000
0"
#5210000
1"
1%
0$
0#
1$!
#5220000
0"
#5230000
1"
1#
1&!
0%!
0$!
#5240000
0"
#5250000
1"
1$
0#
1$!
#5260000
0"
#5270000
1"
1#
1%!
0$!
#5280000
0"
#5290000
1"
1&
0%
0$
0#
1$!
#5300000
0"
#5310000
1"
1#
1'!
0&!
0%!
0$!
#5320000
0"
#5330000
1"
1$
0#
1$!
#5340000
0"
#5350000
1"
1#
1%!
0$!
#5360000
0"
#5370000
1"
1%
0$
0#
1$!
#5380000
0"
#5390000
1"
1#
1&!
0%!
0$!
#5400000
0"
#5410000
1"
1$
0#
1$!
#5420000
0"
#5430000
1"
1#
1%!
0$!
#5440000
0"
#5450000
1"
1'
0&
0%
0$
0#
1$!
#5460000
0"
#5470000
1"
1#
1(!
0'!
0&!
0%!
0$!
#5480000
0"
#5490000
1"
1$
0#
1$!
#5500000
0"
#5510000
1"
1#
1%!
0$!
#5520000
0"
#5530000
1"
1%
0$
0#
1$!
#5540000
0"
#5550000
1"
1#
1&!
0%!
0$!
#5560000
0"
#5570000
1"
1$
0#
1$!
#5580000
0"
#5590000
1"
1#
1%!
0$!
#5600000
0"
#5610000
1"
1&
0%
0$
0#
1$!
#5620000
0"
#5630000
1"
1#
1'!
0&!
0%!
0$!
#5640000
0"
#5650000
1"
1$
0#
1$!
#5660000
0"
#5670000
1"
1#
1%!
0$!
#5680000
0"
#5690000
1"
1%
0$
0#
1$!
#5700000
0"
#5710000
1"
1#
1&!
0%!
0$!
#5720000
0"
#5730000
1"
1$
0#
1$!
#5740000
0"
#5750000
1"
1#
1%!
0$!
#5760000
0"
#5770000
1"
1(
0'
0&
0%
0$
0#
1$!
#5780000
0"
#5790000
1"
1#
1)!
0(!
0'!
0&!
0%!
0$!
#5800000
0"
#5810000
1"
1$
0#
1$!
#5820000
0"
#5830000
1"
1#
1%!
0$!
#5840000
0"
#5850000
1"
1%
0$
0#
1$!
#5860000
0"
#5870000
1"
1#
1&!
0%!
0$!
#5880000
0"
#5890000
1"
1$
0#
1$!
#5900000
0"
#5910000
1"
1#
1%!
0$!
#5920000
0"
#5930000
1"
1&
0%
0$
0#
1$!
#5940000
0"
#5950000
1"
1#
1'!
0&!
0%!
0$!
#5960000
0"
#5970000
1"
1$
0#
1$!
#5980000
0"
#5990000
1"
1#
1%!
0$!
#6000000
0"
#6010000
1"
1%
0$
0#
1$!
#6020000
0"
#6030000
1"
1#
1&!
0%!
0$!
#6040000
0"
#6050000
1"
1$
0#
1$!
#6060000
0"
#6070000
1"
1#
1%!
0$!
#6080000
0"
#6090000
1"
1'
0&
0%
0$
0#
1$!
#6100000
0"
#6110000
1"
1#
1(!
0'!
0&!
0%!
0$!
#6120000
0"
#6130000
1"
1$
0#
1$!
#6140000
0"
#6150000
1"
1#
1%!
0$!
#6160000
0"
#6170000
1"
1%
0$
0#
1$!
#6180000
0"
#6190000
1"
1#
1&!
0%!
0$!
#6200000
0"
#6210000
1"
1$
0#
1$!
#6220000
0"
#6230000
1"
1#
1%!
0$!
#6240000
0"
#6250000
1"
1&
0%
0$
0#
1$!
#6260000
0"
#6270000
1"
1#
1'!
0&!
0%!
0$!
#6280000
0"
#6290000
1"
1$
0#
1$!
#6300000
0"
#6310000
1"
1#
1%!
0$!
#6320000
0"
#6330000
1"
1%
0$
0#
1$!
#6340000
0"
#6350000
1"
1#
1&!
0%!
0$!
#6360000
0"
#6370000
1"
1$
0#
1$!
#6380000
0"
#6390000
1"
1#
1%!
0$!
#6400000
0"
#6410000
1"
1)
0(
0'
0&
0%
0$
0#
1$!
#6420000
0"
#6430000
1"
1#
1*!
0)!
0(!
0'!
0&!
0%!
0$!
#6440000
0"
#6450000
1"
1$
0#
1$!
#6460000
0"
#6470000
1"
1#
1%!
0$!
#6480000
0"
#6490000
1"
1%
0$
0#
1$!
#6500000
0"
#6510000
1"
1#
1&!
0%!
0$!
#6520000
0"
#6530000
1"
1$
0#
1$!
#6540000
0"
#6550000
1"
1#
1%!
0$!
#6560000
0"
#6570000
1"
1&
0%
0$
0#
1$!
#6580000
0"
#6590000
1"
1#
1'!
0&!
0%!
0$!
#6600000
0"
#6610000
1"
1$
0#
1$!
#6620000
0"
#6630000
1"
1#
1%!
0$!
#6640000
0"
#6650000
1"
1%
0$
0#
1$!
#6660000
0"
#6670000
1"
1#
1&!
0%!
0$!
#6680000
0"
#6690000
1"
1$
0#
1$!
#6700000
0"
#6710000
1"
1#
1%!
0$!
#6720000
0"
#6730000
1"
1'
0&
0%
0$
0#
1$!
#6740000
0"
#6750000
1"
1#
1(!
0'!
0&!
0%!
0$!
#6760000
0"
#6770000
1"
1$
0#
1$!
#6780000
0"
#6790000
1"
1#
1%!
0$!
#6800000
0"
#6810000
1"
1%
0$
0#
1$!
#6820000
0"
#6830000
1"
1#
1&!
0%!
0$!
#6840000
0"
#6850000
1"
1$
0#
1$!
#6860000
0"
#6870000
1"
1#
1%!
0$!
#6880000
0"
#6890000
1"
1&
0%
0$
0#
1$!
#6900000
0"
#6910000
1"
1#
1'!
0&!
0%!
0$!
#6920000
0"
#6930000
1"
1$
0#
1$!
#6940000
0"
#6950000
1"
1#
1%!
0$!
#6960000
0"
#6970000
1"
1%
0$
0#
1$!
#6980000
0"
#6990000
1"
1#
1&!
0%!
0$!
#7000000
0"
#7010000
1"
1$
0#
1$!
#7020000
0"
#7030000
1"
1#
1%!
0$!
#7040000
0"
#7050000
1"
1(
0'
0&
0%
0$
0#
1$!
#7060000
0"
#7070000
1"
1#
1)!
0(!
0'!
0&!
0%!
0$!
#7080000
0"
#7090000
1"
1$
0#
1$!
#7100000
0"
#7110000
1"
1#
1%!
0$!
#7120000
0"
#7130000
1"
1%
0$
0#
1$!
#7140000
0"
#7150000
1"
1#
1&!
0%!
0$!
#7160000
0"
#7170000
1"
1$
0#
1$!
#7180000
0"
#7190000
1"
1#
1%!
0$!
#7200000
0"
#7210000
1"
1&
0%
0$
0#
1$!
#7220000
0"
